[gd_scene load_steps=3 format=2]

[ext_resource path="res://components/buildings/building_wrapper.gd" type="Script" id=1]

[sub_resource type="BoxShape" id=1]

[node name="BuildingWrapper" type="StaticBody"]
script = ExtResource( 1 )

[node name="CollisionShape" type="CollisionShape" parent="."]
transform = Transform( 1.75, 0, 0, 0, 0.75, 0, 0, 0, 1.75, 0, 0.75, 0 )
shape = SubResource( 1 )

[node name="SpawnTimer" type="Timer" parent="."]
one_shot = true
[connection signal="timeout" from="SpawnTimer" to="." method="_on_SpawnTimer_timeout"]
